291187 931732 525
694458 638629 442
749750 238759 509
886105 762141 525
517245 642610 509
203387 491377 449
369473 521161 470
899807 515893 525
181905 384966 443
89476 457039 449
5246 595889 470
702861 958155 525
466118 22391 449
723140 665356 504
176212 703603 509
515030 981603 525
635337 723693 504
134438 899292 525
962452 20545 525
175639 479698 449
177360 379026 443
485280 546833 470
414392 899293 525
576932 596297 434
798464 666408 504
567542 803710 509
776503 270404 509
761867 242622 509
806999 999212 525
907978 497416 525
702816 423009 509
479021 338154 449
660908 127664 509
751651 623361 509
662413 927290 525
617265 353979 470
820521 102546 509
900812 234915 525
516044 991949 525
345417 314510 384
172564 427164 449
118221 949067 525
697568 394293 509
705894 504569 509
393506 613873 470
1986 96324 351
551087 995211 525
948682 211996 525
637081 700335 442
349563 299495 441
141831 481033 449
653474 962353 525
97784 68493 351
711473 613829 509
574647 571095 372
928339 261416 525
998260 560765 525
724688 210034 509
955059 430583 525
228808 348566 443
558661 744999 509
959094 109750 525
740211 907778 525
835950 891497 525
122319 699718 509
705198 778354 468
180752 872877 525
254913 278537 407
455575 966386 525
406571 30224 443
51688 334911 443
805844 49949 509
409881 530534 470
259983 364941 441
961117 488792 525
227713 519780 470
747996 701012 504
143735 2413 375
122996 493890 449
893911 245315 525
193610 599110 470
537875 888566 525
471988 792788 509
167104 441769 449
759176 87880 509
471993 325069 449
936995 277838 525
375018 346878 410
322577 149206 443
711819 283696 509
152203 453737 449
317681 900199 525
154751 975620 525
902613 277747 525
469511 796525 509
37268 663121 509
909840 575143 525
65894 896033 525
367932 232998 441
337803 641313 509
320879 324001 353
966382 257875 525
116045 855605 525
118958 438622 449
4813 344983 443
236523 671220 509
798720 68409 509
571421 467676 470
44030 988239 525
259629 513542 470
298970 296897 371
690868 208811 509
386245 756762 509
619049 268382 470
503966 471058 426
909696 339050 525
309264 390284 441
111130 939513 525
760095 230089 509
378137 279113 441
575072 128865 470
950333 887997 507
197275 35960 383
355675 755509 509
24200 615304 470
269052 323170 407
426406 474126 444
46186 812651 509
230889 179441 443
81034 249060 443
650499 504935 509
588110 473968 470
409425 213446 443
413483 169521 449
443535 305825 449
962838 532812 525
434690 913172 525
420810 146170 449
949133 290690 525
901680 487538 525
905994 684937 525
810709 846605 525
159064 371100 443
659257 389954 509
550541 254497 470
153219 715245 509
273637 741330 509
189215 683062 509
954776 116903 525
366788 912516 525
422728 329627 449
445329 857418 525
757005 380344 509
517794 220344 470
671035 419475 509
707882 91235 509
104413 32797 351
452046 263478 449
403898 625508 470
167637 468644 449
880005 320856 525
698095 667848 442
576391 401515 470
865115 45373 525
518418 231905 470
957889 941146 414
75737 917423 525
312770 346947 441
811973 830564 450
567291 997213 525
764244 789379 468
602653 868658 525
822176 54700 509
646341 740279 504
680209 813978 504
208925 74420 383
649039 907020 525
742268 739636 393
308536 607385 470
785009 341159 509
353495 257105 441
282306 943436 525
688733 109281 509
290385 500707 449
939846 371881 525
497921 218296 449
161261 614780 470
86955 983438 525
669480 247501 509
723718 349690 509
575684 446848 470
424111 224725 449
868073 680584 525
964361 690814 525
802174 263576 509
31974 155670 375
520681 828484 509
613312 723620 509
937766 903697 476
224328 391818 443
789783 236455 509
610114 951045 525
851235 211275 525
448689 520716 470
458776 686612 509
384612 34462 443
133462 322928 443
773391 1536 509
517717 251958 470
692351 319893 509
515534 238530 470
475563 550421 470
67016 88876 351
274042 4783 443
506778 12575 449
910805 296563 525
249030 520920 470
761813 614470 509
246400 210503 443
649392 705177 504
897115 34005 525
253844 544782 470
871137 27236 525
60524 388855 443
279194 267080 407
708748 308933 509
505610 698517 509
859354 572626 525
301598 133397 443
91614 808377 509
145973 2420 375
619145 909207 525
37546 895163 525
523679 283946 470
105667 173072 383
503328 516987 470
721281 757172 424
61771 592419 470
298613 636499 509
495479 577807 470
903579 204229 525
886741 409190 525
416951 260301 449
496022 718549 509
393699 587636 470
41132 53877 340
104262 660277 509
963084 656012 525
555441 969 470
454163 175313 449
